Testing
…
t.test(
  x = can_sizes_A,
  y = can_sizes_B,
  alternative = "two.sided",
  var.equal = TRUE 
)

Another syntax

In many real life context, your data will not be stored in two vectors can_sizes_A and can_sizes_B but rather in a tibble object:

data_size

## # A tibble: 200 x 2
##    provider can_size
##    <chr>       <dbl>
##  1 A            332.
##  2 A            328.
##  3 A            331.
##  4 A            334.
##  5 A            330.
##  6 A            332.
##  7 A            334.
##  8 A            332.
##  9 A            330.
## 10 A            327.
## # … with 190 more rows
…
