Sampling
…
Creating many estimates

We just illustrated something you’ve seen in class, the estimate depends on the sample. Since compute_estimate creates a new sample each times it’s called, it will never (or only rarely) produce exactly the same estimate.

Our estimator \(\bar{Y}\) is a random variable, if we had access to its distribution we could compute its bias and and variance. Here we don’t know (yet) the exact distribution of \(\bar{Y}\) yet. We’re thus going to look only at its distribution instead by creating many estimates (say 100, numbered from 1 to 100) for each sample size in \(\{10, 50, 100, 500, 1000, 5000\}\).

We first create a tibble with all combination and then compute an estimate with our function compute_estimate for each combination. The syntax is a bit involved but don’t worry too much about it as it’s not the main purpose.

estimates_data <- crossing(sample_size = c(10, 50, 100, 500, 1000, 5000), 
                           estimate_number = 1:100) %>% 
  mutate(estimate_value = map_dbl(sample_size, compute_estimate))
estimates_data

## # A tibble: 600 x 3
##    sample_size estimate_number estimate_value
##          <dbl>           <int>          <dbl>
##  1          10               1           328.
##  2          10               2           331.
##  3          10               3           326.
##  4          10               4           334.
##  5          10               5           337.
##  6          10               6           330.
##  7          10               7           333.
##  8          10               8           332.
##  9          10               9           333.
## 10          10              10           332.
## # … with 590 more rows
…
You can then look at the evolution of the estimate when you increase the sample size from \(n = 1\) to \(n = 50,000\) (there is no real point looking at larger sample sizes).

compute_estimate_2 <- function(n) {
  estimate <- mean(can_container[1:n])
  return(estimate)
}

estimates_convergence <- tibble(sample_size = seq(from = 10, to = 50000, by = 1)) %>%
  mutate(estimate_value = map_dbl(sample_size, compute_estimate_2))
estimates_convergence

## # A tibble: 49,991 x 2
##    sample_size estimate_value
##          <dbl>          <dbl>
##  1          10           338.
##  2          11           339.
##  3          12           341.
##  4          13           339.
##  5          14           338.
##  6          15           337.
##  7          16           337.
##  8          17           337.
##  9          18           334.
## 10          19           332.
## # … with 49,981 more rows
…
